[gd_scene load_steps=3 format=2]

[ext_resource path="res://Entities/Interactables/Small_Passage/Small_Passage.gd" type="Script" id=1]

[sub_resource type="CircleShape2D" id=1]
radius = 32.0

[node name="Small_Passage" type="Area2D"]
monitorable = false
collision_layer = 2147483648
script = ExtResource( 1 )

[node name="Polygon2D" type="Polygon2D" parent="."]
color = Color( 0.129412, 0.0156863, 0.0156863, 1 )
polygon = PoolVector2Array( -32.0497, -0.708672, -30.5514, -8.3875, -27.3675, -15.6917, -22.6853, -22.4341, -16.8794, -26.7418, -11.0734, -30.1129, -4.70564, -31.424, -0.210709, -31.9858, 8.21725, -31.0494, 16.8325, -27.1163, 22.2639, -23.1833, 25.8224, -18.6884, 28.2571, -15.3172, 30.13, -11.3841, 31.8156, -3.518, 31.6283, 2.47523, 30.6919, 9.21761, 27.3207, 16.5219, 22.2639, 23.4515, 17.769, 26.6354, 14.0232, 29.2575, 8.77913, 30.7558, 2.41132, 31.8795, 0.163864, 32.2541, -6.76581, 31.5049, -14.2573, 28.8829, -19.876, 25.3244, -23.0599, 22.3278, -26.8057, 18.2075, -29.2404, 12.7761, -31.6752, 2.8498 )

[node name="Glimmer" type="Polygon2D" parent="."]
position = Vector2( -111.284, 44.0277 )
scale = Vector2( 2.88889, 1.61538 )
polygon = PoolVector2Array( 34.9707, -41.377, 32.6368, -41.1451, 30.6919, -36.2935, 29.8907, -31.2881, 31.5995, -36.6235, 33.0906, -39.9857 )

[node name="Area" type="CollisionShape2D" parent="."]
position = Vector2( 0.187286, 0 )
shape = SubResource( 1 )
[connection signal="body_entered" from="." to="." method="_on_body_entered"]
[connection signal="body_exited" from="." to="." method="_on_body_exited"]
